{
  "Setups": {
    "LHCb-Certification": {
      "CheckVersion": "True",
      "Commands": {
        "LHCb": [
          "CheckWorkerNode",
          "LHCbInstallDIRAC",
          "LHCbConfigureBasics",
          "CheckCECapabilities",
          "CheckWNCapabilities",
          "LHCbConfigureSite",
          "LHCbConfigureArchitecture",
          "LHCbConfigureCPURequirements"
        ],
        "LHCb-DI": [
          "CheckWorkerNode",
          "InstallDIRAC",
          "LHCbConfigureBasics",
          "CheckCECapabilities",
          "CheckWNCapabilities",
          "LHCbConfigureSite",
          "LHCbConfigureArchitecture",
          "LHCbConfigureCPURequirements"
        ],
        "LHCb-MP": [
          "CheckWorkerNode",
          "LHCbInstallDIRAC",
          "LHCbConfigureBasics",
          "CheckCECapabilities",
          "CheckWNCapabilities",
          "LHCbConfigureSite",
          "LHCbConfigureArchitecture",
          "LHCbConfigureCPURequirements"
        ]
      },
      "Version": "VAR_DIRAC_VERSION"
    },
    "Defaults": {
      "Commands": {
        "defaultList": [
          "CheckWorkerNode",
          "LHCbInstallDIRAC",
          "LHCbConfigureBasics",
          "CheckCECapabilities",
          "CheckWNCapabilities",
          "LHCbConfigureSite",
          "LHCbConfigureArchitecture",
          "LHCbConfigureCPURequirements"
        ],
        "Defaults": [
          "CheckWorkerNode",
          "LHCbGetPilotVersion",
          "LHCbInstallDIRAC",
          "LHCbConfigureBasics",
          "CheckCECapabilities",
          "CheckWNCapabilities",
          "LHCbConfigureSite",
          "LHCbConfigureArchitecture",
          "LHCbConfigureCPURequirements",
          "LaunchAgent"
        ]
      },
      "ConfigurationServer": "VAR_CS",
      "GenericPilotGroup": "dirac_pilot",
      "GenericPilotDN": "VAR_USERDN"
    }
  },
  "CEs": {
    "jenkins.cern.ch": {
      "Site": "VAR_JENKINS_SITE",
      "Queue": "VAR_JENKINS_QUEUE",
      "GridCEType": "LHCb"
    },
    "jenkins-diracinstall.cern.ch": {
      "Site": "VAR_JENKINS_SITE",
      "Queue": "VAR_JENKINS_QUEUE",
      "GridCEType": "LHCb-DI"
    },
    "jenkins-mp.cern.ch": {
      "Site": "VAR_JENKINS_SITE",
      "Queue": "VAR_JENKINS_QUEUE",
      "GridCEType": "LHCb-MP"
    }
  },
  "DefaultSetup": "LHCb-Certification"
}
